…
### Mean amplitude plots of 1F1 channels meeting p&lt; .01 for Infants participants.

    ## # A tibble: 42 x 11
    ## # Groups:   Channel [?]
    ##    Channel  Speed sr.group.mean si.group.mean sr.group.sd si.group.sd
    ##      <dbl>  <chr>         <dbl>         <dbl>       <dbl>       <dbl>
    ##  1      18 2deg/s   -0.02967494   -0.19136656   1.0111513   1.1846602
    ##  2      18 8deg/s   -0.12278792    0.90898179   1.1577339   1.4063363
    ##  3      19 2deg/s    0.10649073   -0.06216760   0.9383936   0.9506056
    ##  4      19 8deg/s   -0.03992669    0.79951642   1.1499551   1.1483019
    ##  5      22 2deg/s    0.13089035   -0.18709996   1.4106630   1.1894998
    ##  6      22 8deg/s   -0.12511510    1.00859044   1.9039668   1.3960632
    ##  7      28 2deg/s   -0.01509958   -0.13871340   0.6753602   0.8614279
    ##  8      28 8deg/s    0.14416217    0.61787633   0.8442781   1.0159863
    ##  9      67 2deg/s    0.27864981    0.02072206   1.3924575   0.9983169
    ## 10      67 8deg/s   -0.82266358   -0.95925950   1.5491229   1.6311130
    ## # ... with 32 more rows, and 5 more variables: rms.amp <dbl>,
    ## #   rms.amp.sem <dbl>, nsubs <int>, sr.group.sem <dbl>, si.group.sem <dbl>
…
